{
    "default_server_config": {
        "m.homeserver": {
            "base_url": "https://{{ matrix_homeserver }}",
            "server_name": "{{ matrix_domain }}"
        }
    },
    "disable_custom_urls": true,
    "disable_guests": true,
    "disable_login_language_selector": false,
    "disable_3pid_login": true,
    "brand": "Riot",
    "integrations_ui_url": "https://scalar.vector.im/",
    "integrations_rest_url": "https://scalar.vector.im/api",
    "integrations_widgets_urls": [
        "https://scalar.vector.im/_matrix/integrations/v1",
        "https://scalar.vector.im/api",
        "https://scalar-staging.vector.im/_matrix/integrations/v1",
        "https://scalar-staging.vector.im/api",
        "https://scalar-staging.riot.im/scalar/api"
    ],
    "bug_report_endpoint_url": "https://riot.im/bugreports/submit",
    "defaultCountryCode": "DE",
    "showLabsSettings": false,
    "features": {
        "feature_new_spinner": "labs",
        "feature_font_scaling": "labs",
        "feature_pinning": "labs",
        "feature_custom_status": "labs",
        "feature_custom_tags": "labs",
        "feature_state_counters": "labs",
        "feature_irc_ui": "labs"
    },
    "default_federate": true,
    "default_theme": "light",
    "roomDirectory": {
        "servers": [
            "{{ matrix_domain }}"
        ]
    },
    "welcomeUserId": "@riot-bot:{{ matrix_domain }}",
    "piwik": {
        "url": "https://piwik.riot.im/",
        "whitelistedHSUrls": ["https://{{ matrix_domain }}"],
        "whitelistedISUrls": ["https://{{ matrix_domain }}"],
        "siteId": 1
    },
    "enable_presence_by_hs_url": {
        "https://{{ matrix_homeserver }}": false
    },
    "settingDefaults": {
        "breadcrumbs": true
    },
    "jitsi": {
        "preferredDomain": "{{ jitsi_meet_domain }}"
    }
}
